Text Analyis
…
Remove stop words; stop words are words that are not useful for an analysis, typically extremely common words such as the, of, to,

harrypotter_clean_tokens <- harrypotter_tokenized %>% 
  anti_join(stop_words)  #remove stop words like "the"

Quantitative and Sentimental Analysis

Q1. what is the most important charecter based on how much it was mentioned

harrypotter_clean_tokens %>%
  mutate(id = R.utils::capitalize(word)) %>%
  inner_join(harrypotter_characters, by =c(id = "FirstName") ) %>%
  count(FullName,sort= TRUE)  

## # A tibble: 147 x 2
##              FullName     n
##                <fctr> <int>
##  1       Harry Potter 16717
##  2        Ron Weasley  5784
##  3   Hermione Granger  4960
##  4       Sirius Black  1005
##  5        Death Eater   758
##  6     George Weasley   712
##  7      Ginny Weasley   709
##  8 Neville Longbottom   671
##  9        Sir Cadogan   419
## 10     Lord Voldemort   391
## # ... with 137 more rows
…
