…
  series <- rbind(series, temp)
}
```

1.3 Keep books in order of publication.
---------------------------------------

``` r
series$book <- factor(series$book, levels = rev(hp_books))
series
```

    ## # A tibble: 1,089,386 x 2
    ##                   book    word
    ##  *              <fctr>   <chr>
    ##  1 Philosopher's Stone     the
    ##  2 Philosopher's Stone     boy
    ##  3 Philosopher's Stone     who
    ##  4 Philosopher's Stone   lived
    ##  5 Philosopher's Stone      mr
    ##  6 Philosopher's Stone     and
    ##  7 Philosopher's Stone     mrs
    ##  8 Philosopher's Stone dursley
    ##  9 Philosopher's Stone      of
    ## 10 Philosopher's Stone  number
    ## # ... with 1,089,376 more rows

2. Words in books
=================

``` r
used_words <- series %>% 
  count(word, sort = TRUE)
used_words
```

    ## # A tibble: 24,475 x 2
    ##     word     n
    ##    <chr> <int>
    ##  1   the 51593
    ##  2   and 27430
    ##  3    to 26985
    ##  4    of 21802
    ##  5     a 20966
    ##  6    he 20322
    ##  7 harry 16557
    ##  8   was 15631
    ##  9  said 14398
    ## 10   his 14264
    ## # ... with 24,465 more rows
…
